<?xml version="1.0" encoding="UTF-8" standalone="no"?>
<svg
   xmlns:dc="http://purl.org/dc/elements/1.1/"
   xmlns:cc="http://creativecommons.org/ns#"
   xmlns:rdf="http://www.w3.org/1999/02/22-rdf-syntax-ns#"
   xmlns:svg="http://www.w3.org/2000/svg"
   xmlns="http://www.w3.org/2000/svg"
   xmlns:sodipodi="http://sodipodi.sourceforge.net/DTD/sodipodi-0.dtd"
   xmlns:inkscape="http://www.inkscape.org/namespaces/inkscape"
   height="24px"
   viewBox="0 0 24 24"
   width="24px"
   fill="#000000"
   version="1.1"
   id="svg6"
   sodipodi:docname="vibration_black_24dp.svg"
   inkscape:version="0.92.4 (5da689c313, 2019-01-14)">
  <metadata
     id="metadata12">
    <rdf:RDF>
      <cc:Work
         rdf:about="">
        <dc:format>image/svg+xml</dc:format>
        <dc:type
           rdf:resource="http://purl.org/dc/dcmitype/StillImage" />
        <dc:title></dc:title>
      </cc:Work>
    </rdf:RDF>
  </metadata>
  <defs
     id="defs10" />
  <sodipodi:namedview
     pagecolor="#ffffff"
     bordercolor="#666666"
     borderopacity="1"
     objecttolerance="10"
     gridtolerance="10"
     guidetolerance="10"
     inkscape:pageopacity="0"
     inkscape:pageshadow="2"
     inkscape:window-width="1680"
     inkscape:window-height="985"
     id="namedview8"
     showgrid="false"
     inkscape:zoom="13.906433"
     inkscape:cx="4.5985376"
     inkscape:cy="13.548859"
     inkscape:window-x="0"
     inkscape:window-y="0"
     inkscape:window-maximized="1"
     inkscape:current-layer="svg6" />
  <path
     d="M 1.6271185,14.593221 H 3.3559321 V 9.4067799 H 1.6271185 Z m 2.5932203,1.728813 H 5.9491524 V 7.6779664 H 4.2203388 Z M 20.644067,9.4067799 v 5.1864411 h 1.728814 V 9.4067799 Z M 18.050848,16.322034 H 19.77966 V 7.6779664 H 18.050848 Z M 15.889831,4.2203392 H 8.1101693 c -0.7174576,0 -1.2966101,0.5791526 -1.2966101,1.2966102 V 18.483051 c 0,0.717458 0.5791525,1.29661 1.2966101,1.29661 h 7.7796617 c 0.717456,0 1.296609,-0.579152 1.296609,-1.29661 V 5.5169494 c 0,-0.7174576 -0.579153,-1.2966102 -1.296609,-1.2966102 z M 15.457627,18.050848 H 8.5423727 V 5.9491528 h 6.9152543 z"
     id="path4"
     inkscape:connector-curvature="0"
     style="stroke-width:0.86440676" />
</svg>
